…
Now to get to the modeling.


```r
# split data into Training + Test sets
set.seed(123)

spl <- sample.split(social$Purchased, SplitRatio = 0.75) # tidy does not work here

(training <- social %>%
  subset(spl == TRUE))
```

```
## # A tibble: 300 x 3
##           Age EstimatedSalary Purchased
##         <dbl>           <dbl>    <fctr>
##  1 -1.7795688      -1.4881825         0
##  2 -1.1118131      -0.7843075         0
##  3 -1.0164195      -0.3443855         0
##  4 -1.0164195       0.4181458         0
##  5 -0.5394512       2.3538022         1
##  6 -0.2532702      -0.1390886         0
##  7 -1.1118131       0.3008333         0
##  8 -1.6841751       0.4768020         0
##  9 -0.5394512      -1.5175106         0
## 10 -1.8749625       0.3594895         0
## # ... with 290 more rows
```

```r
(test <- social %>%
  subset(spl == FALSE))
```

```
## # A tibble: 100 x 3
##           Age EstimatedSalary Purchased
##         <dbl>           <dbl>    <fctr>
##  1 -0.2532702      -1.4588544         0
##  2 -1.0164195      -0.3737137         0
##  3 -1.7795688       0.1835208         0
##  4 -1.2072068      -1.0775887         0
##  5 -1.1118131      -0.5203543         0
##  6  0.7006665      -1.2828856         1
##  7  0.7960601      -1.2242294         1
##  8  0.9868474      -1.1949012         1
##  9  0.8914538      -0.6083387         1
## 10 -0.8256322      -0.7843075         0
## # ... with 90 more rows
```
…
