…
Joining different variables between the tables, e.g. inner_join(x, y, by = c("a" = "b")) uses a slightly different syntax in SQL: SELECT * FROM x INNER JOIN y ON x.a = y.b. As this syntax suggests, SQL supports a wider range of join types than dplyr because you can connect the tables using constraints other than equality (sometimes called non-equijoins).

13.5 Filtering joins

Filtering joins match observations in the same way as mutating joins, but affect the observations, not the variables. There are two types:

semi_join(x, y) keeps all observations in x that have a match in y.
anti_join(x, y) drops all observations in x that have a match in y.
Semi-joins are useful for matching filtered summary tables back to the original rows. For example, imagine you’ve found the top ten most popular destinations:

top_dest <- flights %>%
  count(dest, sort = TRUE) %>%
  head(10)
top_dest
#> # A tibble: 10 × 2
#>    dest     n
#>   <chr> <int>
#> 1   ORD 17283
#> 2   ATL 17215
#> 3   LAX 16174
#> 4   BOS 15508
#> 5   MCO 14082
#> 6   CLT 14064
#> # ... with 4 more rows
…
Only the existence of a match is important; it doesn’t matter which observation is matched. This means that filtering joins never duplicate rows like mutating joins do:



The inverse of a semi-join is an anti-join. An anti-join keeps the rows that don’t have a match:



Anti-joins are useful for diagnosing join mismatches. For example, when connecting flights and planes, you might be interested to know that there are many flights that don’t have a match in planes:

flights %>%
  anti_join(planes, by = "tailnum") %>%
  count(tailnum, sort = TRUE)
#> # A tibble: 722 × 2
#>   tailnum     n
#>     <chr> <int>
#> 1    <NA>  2512
#> 2  N725MQ   575
#> 3  N722MQ   513
#> 4  N723MQ   507
#> 5  N713MQ   483
#> 6  N735MQ   396
#> # ... with 716 more rows
…
