…
There are two printed outputs: the column specification generated by looking at the first 1000 rows, and the first five parsing failures. It’s always a good idea to explicitly pull out the problems(), so you can explore them in more depth:

problems(challenge)
#> # A tibble: 1,000 × 5
#>     row   col               expected             actual
#>   <int> <chr>                  <chr>              <chr>
#> 1  1001     x no trailing characters .23837975086644292
#> 2  1002     x no trailing characters .41167997173033655
#> 3  1003     x no trailing characters  .7460716762579978
#> 4  1004     x no trailing characters   .723450553836301
#> 5  1005     x no trailing characters   .614524137461558
#> 6  1006     x no trailing characters   .473980569280684
#> # ... with 994 more rows, and 1 more variables: file <chr>
…
11.4.3 Other strategies

There are a few other general strategies to help you parse files:

In the previous example, we just got unlucky: if we look at just one more row than the default, we can correctly parse in one shot:

challenge2 <- read_csv(readr_example("challenge.csv"), guess_max = 1001)
#> Parsed with column specification:
#> cols(
#>   x = col_double(),
#>   y = col_date(format = "")
#> )
challenge2
#> # A tibble: 2,000 × 2
#>       x      y
#>   <dbl> <date>
#> 1   404   <NA>
#> 2  4172   <NA>
#> 3  3004   <NA>
#> 4   787   <NA>
#> 5    37   <NA>
#> 6  2332   <NA>
#> # ... with 1,994 more rows
…
readr also comes with two useful functions for writing data back to disk: write_csv() and write_tsv(). Both functions increase the chances of the output file being read back in correctly by:

Always encoding strings in UTF-8.

Saving dates and date-times in ISO8601 format so they are easily parsed elsewhere.

If you want to export a csv file to Excel, use write_excel_csv() — this writes a special character (a “byte order mark”) at the start of the file which tells Excel that you’re using the UTF-8 encoding.

The most important arguments are x (the data frame to save), and path (the location to save it). You can also specify how missing values are written with na, and if you want to append to an existing file.

write_csv(challenge, "challenge.csv")
Note that the type information is lost when you save to csv:

challenge
#> # A tibble: 2,000 × 2
#>       x      y
#>   <dbl> <date>
#> 1   404   <NA>
#> 2  4172   <NA>
#> 3  3004   <NA>
#> 4   787   <NA>
#> 5    37   <NA>
#> 6  2332   <NA>
#> # ... with 1,994 more rows
write_csv(challenge, "challenge-2.csv")
read_csv("challenge-2.csv")
#> Parsed with column specification:
#> cols(
#>   x = col_integer(),
#>   y = col_character()
#> )
#> # A tibble: 2,000 × 2
#>       x     y
#>   <int> <chr>
#> 1   404  <NA>
#> 2  4172  <NA>
#> 3  3004  <NA>
#> 4   787  <NA>
#> 5    37  <NA>
#> 6  2332  <NA>
#> # ... with 1,994 more rows
This makes CSVs a little unreliable for caching interim results—you need to recreate the column specification every time you load in. There are two alternatives:

write_rds() and read_rds() are uniform wrappers around the base functions readRDS() and saveRDS(). These store data in R’s custom binary format called RDS:

write_rds(challenge, "challenge.rds")
read_rds("challenge.rds")
#> # A tibble: 2,000 × 2
#>       x      y
#>   <dbl> <date>
#> 1   404   <NA>
#> 2  4172   <NA>
#> 3  3004   <NA>
#> 4   787   <NA>
#> 5    37   <NA>
#> 6  2332   <NA>
#> # ... with 1,994 more rows
The feather package implements a fast binary file format that can be shared across programming languages:

library(feather)
write_feather(challenge, "challenge.feather")
read_feather("challenge.feather")
#> # A tibble: 2,000 x 2
#>       x      y
#>   <dbl> <date>
#> 1   404   <NA>
#> 2  4172   <NA>
#> 3  3004   <NA>
#> 4   787   <NA>
#> 5    37   <NA>
#> 6  2332   <NA>
#> # ... with 1,994 more rows
…
